<svg width="15" height="16" viewBox="0 0 15 16" fill="none" xmlns="http://www.w3.org/2000/svg">
<path d="M0.716553 9.8668L0.362999 9.51324L0.216553 9.65969V9.8668H0.716553ZM9.11655 1.4668L9.47011 1.11324C9.27484 0.917981 8.95826 0.917981 8.763 1.11324L9.11655 1.4668ZM13.7832 6.13346L14.1368 6.48702C14.332 6.29175 14.332 5.97517 14.1368 5.77991L13.7832 6.13346ZM5.38322 14.5335V15.0335H5.59033L5.73677 14.887L5.38322 14.5335ZM0.716553 14.5335H0.216553C0.216553 14.8096 0.44041 15.0335 0.716553 15.0335L0.716553 14.5335ZM1.07011 10.2203L9.47011 1.82035L8.763 1.11324L0.362999 9.51324L1.07011 10.2203ZM8.763 1.82035L13.4297 6.48702L14.1368 5.77991L9.47011 1.11324L8.763 1.82035ZM13.4297 5.77991L5.02967 14.1799L5.73677 14.887L14.1368 6.48702L13.4297 5.77991ZM5.38322 14.0335H0.716553V15.0335H5.38322V14.0335ZM1.21655 14.5335V9.8668H0.216553V14.5335H1.21655ZM5.963 4.62035L10.6297 9.28702L11.3368 8.57991L6.67011 3.91324L5.963 4.62035ZM7.71655 15.0335H14.2499V14.0335H7.71655V15.0335Z" fill="#003CFF"/>
</svg>
