<svg width="16" height="14" viewBox="0 0 16 14" fill="none" xmlns="http://www.w3.org/2000/svg">
<path d="M1.46655 11.6666V2.33324C1.46655 1.81777 1.88442 1.3999 2.39989 1.3999H6.13322L7.99989 3.26657H13.5999C14.1154 3.26657 14.5332 3.68444 14.5332 4.1999V11.6666C14.5332 12.182 14.1154 12.5999 13.5999 12.5999H2.39989C1.88442 12.5999 1.46655 12.182 1.46655 11.6666Z" stroke="white"/>
</svg>
