<svg width="18" height="18" viewBox="0 0 18 18" fill="none" xmlns="http://www.w3.org/2000/svg">
<path d="M8.53322 5.26657H15.9999M8.53322 12.7332H15.9999M3.39989 3.3999H5.26655C5.78202 3.3999 6.19989 3.81777 6.19989 4.33324V6.1999C6.19989 6.71537 5.78202 7.13324 5.26655 7.13324H3.39989C2.88442 7.13324 2.46655 6.71537 2.46655 6.1999V4.33324C2.46655 3.81777 2.88442 3.3999 3.39989 3.3999ZM3.39989 10.8666H5.26655C5.78202 10.8666 6.19989 11.2844 6.19989 11.7999V13.6666C6.19989 14.182 5.78202 14.5999 5.26655 14.5999H3.39989C2.88442 14.5999 2.46655 14.182 2.46655 13.6666V11.7999C2.46655 11.2844 2.88442 10.8666 3.39989 10.8666Z" stroke="#77757F"/>
</svg>
