<svg width="16" height="18" viewBox="0 0 16 18" fill="none" xmlns="http://www.w3.org/2000/svg">
<path d="M0.800049 0.6V0.1C0.523906 0.1 0.300049 0.323858 0.300049 0.6H0.800049ZM0.800049 16.2H0.300049C0.300049 16.4761 0.523906 16.7 0.800049 16.7L0.800049 16.2ZM3.90005 0V18H4.90005V0H3.90005ZM0.800049 1.1H12.8V0.1H0.800049V1.1ZM14.7 3V13.8H15.7V3H14.7ZM12.8 15.7H0.800049V16.7H12.8V15.7ZM1.30005 16.2V0.6H0.300049V16.2H1.30005ZM14.7 13.8C14.7 14.8493 13.8494 15.7 12.8 15.7V16.7C14.4017 16.7 15.7 15.4016 15.7 13.8H14.7ZM12.8 1.1C13.8494 1.1 14.7 1.95066 14.7 3H15.7C15.7 1.39837 14.4017 0.1 12.8 0.1V1.1ZM7.40005 5.9H12.2V4.9H7.40005V5.9Z" fill="#003CFF"/>
</svg>
