<svg width="18" height="18" viewBox="0 0 18 18" fill="none" xmlns="http://www.w3.org/2000/svg">
<path d="M12 10.8001L9 13.2001L6 10.8001M6 7.20005L9 4.80005L12 7.20005" stroke="#003CFF" stroke-linecap="square"/>
</svg>
